{
  "functions": {
    "predeploy": [
      "npm --prefix \"$RESOURCE_DIR\" run lint",
      "npm --prefix \"$RESOURCE_DIR\" run build"
    ]
  },
  "hosting": {
    "appAssociation": "AUTO",
    "public": "public",
    "rewrites": [
      {
        "source": "/share/**",
        "dynamicLinks": true
      }
    ]
  }
}